digraph "moc_antwin.cpp"
{
  edge [fontname="Helvetica",fontsize="10",labelfontname="Helvetica",labelfontsize="10"];
  node [fontname="Helvetica",fontsize="10",shape=record];
  Node0 [label="moc_antwin.cpp",height=0.2,width=0.4,color="black", fillcolor="grey75", style="filled", fontcolor="black"];
  Node0 -> Node1 [color="midnightblue",fontsize="10",style="solid"];
  Node1 [label="antwin.h",height=0.2,width=0.4,color="black", fillcolor="white", style="filled",URL="$antwin_8h.html"];
  Node1 -> Node2 [color="midnightblue",fontsize="10",style="solid"];
  Node2 [label="QMainWindow",height=0.2,width=0.4,color="grey75", fillcolor="white", style="filled"];
  Node1 -> Node3 [color="midnightblue",fontsize="10",style="solid"];
  Node3 [label="QPainter",height=0.2,width=0.4,color="grey75", fillcolor="white", style="filled"];
  Node1 -> Node4 [color="midnightblue",fontsize="10",style="solid"];
  Node4 [label="QString",height=0.2,width=0.4,color="grey75", fillcolor="white", style="filled"];
  Node1 -> Node5 [color="midnightblue",fontsize="10",style="solid"];
  Node5 [label="QCloseEvent",height=0.2,width=0.4,color="grey75", fillcolor="white", style="filled"];
  Node1 -> Node6 [color="midnightblue",fontsize="10",style="solid"];
  Node6 [label="antthread.h",height=0.2,width=0.4,color="black", fillcolor="white", style="filled",URL="$antthread_8h.html"];
  Node6 -> Node7 [color="midnightblue",fontsize="10",style="solid"];
  Node7 [label="QThread",height=0.2,width=0.4,color="grey75", fillcolor="white", style="filled"];
  Node6 -> Node8 [color="midnightblue",fontsize="10",style="solid"];
  Node8 [label="ant.h",height=0.2,width=0.4,color="black", fillcolor="white", style="filled",URL="$ant_8h.html"];
  Node1 -> Node8 [color="midnightblue",fontsize="10",style="solid"];
  Node0 -> Node9 [color="midnightblue",fontsize="10",style="solid"];
  Node9 [label="QtCore/qbytearray.h",height=0.2,width=0.4,color="grey75", fillcolor="white", style="filled"];
  Node0 -> Node10 [color="midnightblue",fontsize="10",style="solid"];
  Node10 [label="QtCore/qmetatype.h",height=0.2,width=0.4,color="grey75", fillcolor="white", style="filled"];
}
